GET /static/js/ia/main.min.js HTTP/1.1
Host: www.iconarchive.com
Connection: keep-alive
User-Agent: Mozilla/5.0 (Windows NT 10.0; Win64; x64) AppleWebKit/537.36 (KHTML, like Gecko) Chrome/57.0.2987.133 Safari/537.36
Accept: */*
Referer: http://www.iconarchive.com/tag/bitmap-image
Accept-Encoding: gzip, deflate, sdch
Accept-Language: en-US,en;q=0.8,ro;q=0.6,ru;q=0.4
Cookie: pid=9ab75297a59c6273; __cfduid=d42e9a40c813e86d93e768c21e124b6f21494087406; configuser=eyJ0ZXN0IjoidGVzdHQiLCJxIjoiYml0bWFwIGltYWdlIn0=

HTTP/1.1 200 OK
Cache-Control: public, max-age=7200
Expires: Sat, 06 May 2017 18:17:37 GMT
Vary: Accept-Encoding
Content-Encoding: gzip
Last-Modified: Wed, 14 Dec 2016 23:22:51 GMT
ETag: "1479717461"
Content-Type: application/javascript
Accept-Ranges: bytes
Content-Length: 10275
Date: Sat, 06 May 2017 16:17:37 GMT
Server: lighttpd/1.4.35

....K.QX...}iw.F..........`.....@_...qb..Lf.....D"....Z......nl....d.....@wuuuuuUu..o..hG.$....2v#+p..7...I...\z....(.W...j.......Z3;~s......%+]..?...r........7..Y)...lC.A..x:	.0..6...v.v.....XCW..R.
.........~7..h...=u-M..m...N......u..u..oz.h....=...........2.$^.(.o....|........=..Rd.Q..=r..t.....'.n....?$....>F.(&...........|.?.....>=}...:.1..[..@W..y...HO.-.,7v.....,7..ga..A.<]-\.T....&6...i^__7..GM.....Aa..
P:Wqb'.df..E...[..&A	.=.Z...AJ..,c..u:k..E....{.`V.......?...8:v.$..M.S.....~..O.9.....t........|.jM.y.z..i-f..Z.!I^f.....^0.A`M...w....=w..X....)j1..?.>P......H...1 D}yl..b7.....p.......u.o..@..o..P.:.d9...4.......+G.2..-.g...?...$..Y...o. ........#..`.<.M.>J...A....
..'0:M.1.L..L.,U..k..@/a.:..oK..}...x...G....AW.m.k....).S..zW...$3..y..Qf.7.%.....n.-....KkxNC;`,...C.....I..P.S..p.i.]....>7..D?......|......oO\.}v~v.6....3..'_....%6r...{K=;?.|p.6.MC..._..]<0....9...7..KI.HolQZ..q'h-...,+X.Hi.&.(P.....|......m.D.......v+..q.#1..E7..v...m(7v4..i!...x.|nO....p..$.......r.Y..ve.....!.$~..Y(.y.D.x.....]..qx...}..x.H..}...e..ql....0M/H.P.=..s-Qf.GW...O&.2H.+'.2..+K..*a@<..x.^.r...k..^..w.>.:z.v/q..=i.#S..s-Vbo.....\E..:.G.]p.%.......#.kxIi.*\F..y....76...@...q..d..:U......:.R.....?z.N..F...c!....9'^.X&
.
.n...*k!.&.>U!...s.....)Y.Yi..K\.[...j%+*..W...U1UYF..........E".PG.lgz.S....$...x..e..2I..D.,.$.7....%k.....E....d...i.es9u.....`./.u2.........s..M.......a..>9.b...S^....).L.1...G.k|........>u...K........YA...I..gL......'.....u@.......V.30f&c.gv.VB_{...xPE.#o....`..8.%o.h.........}...'+.....t..........I{.........|PGO>......%+....&Gq<...Hi....M..0.`9......j1s.K&`.....9B$........%....>......3o2S.{?..5.K.&...X..%f.F..A"..!h........].]..........>6.F.."..Pk...{h..i.....\B'L.VP6..et2........ b.0...L1y.r..&..5..@...%......8...W2s%...a..Pl.A.{...w.R..E.4......* ..S.....}...1xSP....mG.......I.+....J.
...F...p..J.z.k...aIC....Y......xwcC.P-.E.jGk....)nT.U...e.....*.g'.....9........:.h.XI........F.I9.QH...X....)..q.wsc..O%..O-Ujc...../ D.s..V.#..G.0.C.E....(^.0pivB
.X....a?I....,].-..5..(.w......
.p..."P.h.Os=p.P.y..].e....+..!
..C..;Za1.M..1.I?.F.0...;.6.....+.!Z.{.`... c...E..n.M.tT.1......1.I.	..>...e..{.a`!...BQ.Y'.P.G.^..X.......z.L...........I.aF
....g.......pB..t.R.MVR.4.....+(.C^....G.Q....h.qV.. 9.	
...Z.)........!H.).r.O..W
.l....".o#o..:~~...............F.L...ja....w5.....v.!.Qh...X-.(c.Y..6QrS@..|.do-eF.}'...H.e	EeO..{..1(h...(?b.N..S...b..:....u.}.4[@.....Q.n.....Ip.....	i.^u.6.X...l.}.'.U.0M..Yk.S6......z.._l.r..(W..]..b.$.2..0....A.5..<-...j.iE.4...y..^.4.co..&.1...&.R..u.........G..G...j.*Y..|
4.|....l..l....z..?...Nk....!]......Rp.....$......d<..%Z.t..5.`D@.6.......XQ...`..n..A..X....._k.=.0..3.4.....5.f.^.`..U3.ix.N[..O..Qx..Edb.f-.a$.p.&&)..K.;......)6X....r.@x.......-.........4.....vt.?..	.e.l=.I..O.A/...[.!..&..gc..O.]7..>..../.C[.....o.@.{......B..oyP..vKCq.R3Z<.....u.^q.....c.m.....(.,.Z...,...a.....
N..S0..S......6P....tx.E;)n....V...W5....m....pi]5.. Co.`. ..5....#....(..	.X...`...	.r.=8\.......*...v.>..R..$T..<....nd.....Ey.L]I%J......g=....J..LI.;.(\...2..P..........L...I.a.G..+..?L.p.p..f.2..+.MIz./...w@-._.D...q77.S...v.H..N&...L.".uI....0......i...E...6....tZ.~z.~p`}N7%].......... ..~.9_......k.G....*..\....6.;YMYw...XrF{...g.;.A.....M(...!...l3.-bl=......O....c..3..C..c..h.SE&.&q.2.c..nL\n..!......E..E...qOo.CI.[W.E.`...A...13.u-.y.fjM.x...A/.....|...M.....WM[.2...(+]....@.$
}?O
.EN}J.u..|..t.....X.*..G..t.Z...]...0.d...I(e.\..Sk.,.gK.R....=.qA0...F......<....Z.s...`0.;H....?..^
.q.N>\R.K..K........C.......;.[.......D...^...8p1=."!..xR:.F.b.7.X.(.B5Zv.D...<`...L.R.aD....'a.r}.......!..r..-;o...k&.4..B...3:..#..j.R.mlGM{I.....W...!.S.)NRb..i\...UZ2..........^)..^.,.s.Z....i......d(. }plu...Z..,.7..um.;4........g....[....`..xf...
..U\....%.GKX..	~D.2	` /.f.....L.c2.0O..L..=...S#......P...........J.Z.....W...n@..`.....-.r.....IX........".T.vXm...b6..U.."...*.{.."...^.@.P.j.T.)...X....x....l>@Y.O..r.JLK.I5..O.$...E.{Kk...3..."Q	.......C..ft.%..;!.1.EP..>x.wk.$G.b.G.`(....w+b.w.DW_..w...b..F.En.	...IK]'...,.hUe..24..C:jg.)0#...3/.hJ~.....5S...O.....`..1H..t..'3?.....$....Y..A9.sM|iG..s..G.......?h..9..."....j......W........=V..6[.......^.+.G..JQ,./.....1..2.3..\....YZ..xfu.h.g......;[..0n~..s....@WR.|/..C.P..O.fVy.ie|..."...0.V...p..8...I.a..&..DT..nCW...`..P...".....4s...x..u.J..#..{WW...Q06.E>........N6.1)r..e,J_G.bA.r.c.....y...MJW.*....N..V..33.-.l....=....E+...E...^p.6Ok...v..In....kn.^..2=]...yL....|..H>...\R.|.=.8S..Q..8...8PM........|..*.Z.N'.%...W.w.....nzU	..dd....{|T....P......TR...u....?.4...y......*..1(.......>..b|.z...[MO()I....;...6...Y.fngJ4....O..jv..... }.l/.Wh.....V.*5x..*%......VK.]r.bU....m./.~g.3......A......1.';:.G. ..a.lQ..!..-t...5R.."..`V.....S...8'.6.H../.^....{.u.f.#...}=y...y.K....2.....J...B..I.y)..........*/!7.].cO.A.....1Z.~._kD.8".]GD...^....u..U. ..vD/..A......e0*A.Y.......k7z.|......<..."
!.......
r.w.]..-4.O....F.Y5h1i.D.j.F..uT6.k.g...j..b..A.8`..*...Wn.^...,Y....a.w..}f....H.i*........T....?`./...r.2Z6i...G..~..[........K].
h......H..5db.w.YD.X.O.B.hB.M............../...-YJ...v....`=qk..W
..bp...K@r).\".4.=.....n....sp`.&.|....T.}u.T
w.J...(?y.T5......3,.5...........^B.....^.o..e2I;W..5<.r.._%_.l..P.ju.....1L0...q..k.5......p.AQSC............(.J...|..!.[..o
S.....0X....2..9.$7.g..$Ja\
w7.c...x....9.E.o..l.[`....r....@..m..~>.x.r...D.$^.......p......>4OU.H...2...4..
..{Ne..#...........
_..O...x...t...:+..hEU.+...,..U:....V?..w.4....."6;._..Q........Y. 0^..\...0p...l..... K.......7.h...bp.h...T.ww.j.0
p....e.YQ....r.[t...<5WK.Y...,....[~...,...q....a._.?..|	..............J...5..c.l...........fi.{...0..L~iR....E	....=v!.-..!WU.<.&.....t....=i.....6U.J.p!.....8.=:Y..... .d...|...N...._........F.d.s....|.Q....:zj.....cwF.qL.s.Hq>.[m.).
..v...J..)..	^......S...y.dV..aa........
>.t...L.$..J..\...a,.2GW9S..._.._...sV$#.@..B....OZ..p0...../ ....~..^z)....,^..id..(f?..........8G.._}.~...b...._."...&.m.F.[_oU	Q..j...i.>.....).\./g.8...dY..c.t:eb...o'.....y.%f\..#Pr..f..l... .._.a.....N..^....9...UW.ZH5.."r?>.}<<.Uo....j`.....d.......D.S..T...!3......9.
.......;<zrt.........8.-0.c.W..............L...#8...._...c;.S.....5&hz2..C.5k...	.|..X...u R.....n....O0.?...Ea.......X.7O.a.u.kts...V...n\G......:UC9r.n...PNa7....D...|@Fw+..wE..BpQ.............3%..rZ.
3..J .G..V-.h.&.(...8...A....n..).... .Q.Va. )....~*.6..wG`Jz*....6.)..T<.......f;{K{.....T6..Z.....*...c#.....a$..v)ZW.."...B.....:9V.Y...Q..[..Dg..=x.XI%@Qs.Y7`.........&..4<8:J....B........<.K.a.'../w.#I......~{.:v....E.{...Q....t...c6..L1..%_UTZ.,.......Y.]PH.h.M#	O.H......u..L.W.^\../.-...R........M..lX=...%..+/..5w.Y .......xV....3..l.hW'....j.......y....<B..'....-......Z......?*s......Z....i...A=`D.....t..Gw.Cef.....U*..v...]..M........M...`G	(.X....+...5...K.:}m..5q-+...^'
.". ........9..)q....Z.XE....l.....C...HE@\Y.u..o..G.&.xQ>(!wP.\	.B.
Z[..xBr....	.d....t.<\:..:.R..X@]..0..u...S.N/...m.wm.l+W%,i........k&ox..N....#.q.}.c.^y..l.H$...<.....%A.4.....\..m./"z)X.+c#..FI.....&....+...&..i..T.5.nPd.t..N..e.H.\....$Q..+...
^J....y...N.c".S.b....iW...u.9_......
.........wkX......=b.......}k...Vq..9.VDs]..q....(.y...Hwb.$.....W.`f....q.9.	ER...4.?...2..L.m..J..[..A...J.....4.j.8.+.E...U.K.{j{Ak.7-s...f.K.}..V....iz..3f3..P...$O..d..e...I..).."_.u..o...^..@+U.].c...'.....\....&fR.K....(...T....T.h.@m.].*Oc6.HJh.Z...6Q.....~TU.P i...:j.Fk,....ao.W{.eY.....;v.~.T....t.E?V.~.;....N.^.@.Eg.9. ...o>:N.S..;.5..W.#.*._..l.wDV..N..l...:.J.I..*ID...J...8k./._k..JKQe.
.,t}..S.P.....ED.k.s...<..g!.B..$..=O>.y.1..g.a.........s..........Ix..$..zc{..-..~..&....[...mS............r...upl...................MXY..-h~m=x|Nd...B...I.o.K,.{j.#d...q.".=s..z......b.-m..L.\W.....xq3..r.B...........>l.K........\.eE.............).)&....3).]_.?6u...~...Q8....D...]g....b...)..{7.W.....Y.g;...D.....0.3..E.P-.%.p.|...F......X<.Y...G.+...z-.[......i..4%.*.....E7G.6O.. ..cH...7....1.yO/"./P.-....-Kp..1.*.Z.2.......tB<...vBpxQ&...O..$....n....b1.?.H...........!...q{.^...hP..............B.K.*...C-.6.A....S^.OoI...._/..P..'..e0....m.. .E..ge8..0. ..X...{.s7..yU.$..^.%e5ol...Vq.C..h..U'..N.w2....^.!:...g...z...>.......lq.!r.kN........\.L...2.|	)p\..<...x2...a.0}..n..
.X.UU5.].P..N..j.....J...l.5.i.=|2.$.]Y......z......n..]......HN88H...4....b,H.......SK.V.J....	/.....=&....M..u..M`...!.>.......]W.._...._y...GY......c.....w..{E2Q?'..	.x0E....q..}h.~.}..^i...7.PM=.T..Q...WF...~.^.l.I.
=..$.eyE..DTc..f!..j>.FV.......0.\X..z.Q...Ud...+.L'...'.'].gw.4...u.\...Q..G.Vx...*.e.7s..T..1.1mv5U-.x.9g....e.........,Ysp.f`.._vE.\..+....~i-v@........O.y<....g.....QVh|g.?.PP@.C&.jG...?....w.d5.]...|z.Q.W..@..(.
$.W..(D..........1L...{;..U....t...a....?.G+.=.)..FZ/...I.b......M...E.....li...+X.B.O.u]n.....!.J.3O......d....9.B.......O..1........%.0n.s.K;Mw.......u	.Ha.%n..*...-4DPu...E.I....|....pY..\.X`k4...6
.T ...]...0.I*Ija....%A...~.........(....7_...H..MF..V......2...p..+t.#......_...QT.#.n..[...2.]*s;.I.[w..r..<..}jG.).T...?.X*...4....S..A..s...GQ...
......l....t.:...By.^%...p.9...c
........I.D...>5.|j..R.yG...<..B8..=B..5
.()..../......r-....$.+...z...dWb...../.*nS...).-f...w.74H9;..........Z..<p=..r.y#..m_N.....B._....%......I...>....'.e..x.K/.}.o%......FQ.qNhYYZ.....L..].A....].....f....R.<}....?................?...............>.. \.#.......?;.^........m....f.3..9....9..Cs.%.	.
........}2_\....x.......I._..o.\=.S..mLNx.v-|. .~..	..`.2.{5...t$.
.''..Oa......?.u-L.....:7....'.z"./....!...h..=i4.,......F#..+..... E...N.v..AF.:Z..^@'..w.r...O...%..V....w.&.J@9........R.l@.L.|. ..&_P.>..@.....\...TJ................P
.~...v{.f....O..a.
#.....8'<..}){..M.r..C..(..Am.'A..1..]...g.@..../.......p._.<c...3%..@..;Im$<..0.)`....5).kg.y..."3..".`G	(*g...q.:...p..S.WFa..
."8.0. ..v%|N...BQ.v.&E...}.....AWJ...........u.).R.k.......`........j.=..W.g|...k...R.;TI>?T	Stl4...8#b.q+:.!......!$).*..{.FW.+.@Z..|.Z.\.3!.P.2.w.....t<....>..e.|.`....[...5.e.Ed.......bDr....
b.n..z.u.	..UP.....*..>.aGc.VO..&.......Uw....P..\..O	...	^.2......b...s...C...wC;f.{..H.=>6......0.k....H.K...[.5o.}...2I.@...|..,..=[.,......b...^.g.Y.`.........v../.#.........!......Z..
..K.j...+....o.V.u<\.!.....Qg.:..}.<..;.vd.....l..>..C.k..+.$a
.
g.x...D74......<.RE0.;..P...._..<...(..x....1.T#..e.j.N...#.1t...7..........n..7G.	..1....0.....z......+.....#..f.w.`Kqwo.	.......(.....8...:./'V..7q..C.q.f...~.r...l.1..n.T+...id{....2m.....K..'C...GET /static/js/jscolor/cross.gif HTTP/1.1
Host: www.iconarchive.com
Connection: keep-alive
User-Agent: Mozilla/5.0 (Windows NT 10.0; Win64; x64) AppleWebKit/537.36 (KHTML, like Gecko) Chrome/57.0.2987.133 Safari/537.36
Accept: image/webp,image/*,*/*;q=0.8
Referer: http://www.iconarchive.com/tag/bitmap-image
Accept-Encoding: gzip, deflate, sdch
Accept-Language: en-US,en;q=0.8,ro;q=0.6,ru;q=0.4
Cookie: pid=9ab75297a59c6273; __cfduid=d42e9a40c813e86d93e768c21e124b6f21494087406; configuser=eyJ0ZXN0IjoidGVzdHQiLCJxIjoiYml0bWFwIGltYWdlIn0=; myicons=eyIwIjoiR3JvdXA6UmVjeWNsZSBCaW58UHJpdmF0ZSIsIjEiOiJHcm91cDpJY29ucyBmb3IgbXkgUHJvamVjdCBOby4gMXxQdWJsaWMiLCIyIjoiR3JvdXA6SWNvbnMgZm9yIG15IFByb2plY3QgTm8uIDJ8UHVibGljIiwiMyI6Ikdyb3VwOkljb25zIGZvciBteSBQZXJzb25hbCBEZXNrdG9wfFByaXZhdGUiLCI0IjoiR3JvdXA6SWNvbnMgZm9yIG15IFdvcmsgRGVza3RvcHxQcml2YXRlIn0=; _ga=GA1.2.361614409.1494087457; _gid=GA1.2.444390589.1494087457; _gat=1

HTTP/1.1 200 OK
Cache-Control: public, max-age=7200
Expires: Sat, 06 May 2017 18:17:38 GMT
Content-Type: image/gif
Accept-Ranges: bytes
ETag: "2001503800"
Last-Modified: Wed, 14 Dec 2016 23:22:51 GMT
Content-Length: 83
Date: Sat, 06 May 2017 16:17:38 GMT
Server: lighttpd/1.4.35

GIF89a...................!...
...,..........$........RQg/.,....@..).).q...p<..U...;GET /static/js/jscolor/arrow.gif HTTP/1.1
Host: www.iconarchive.com
Connection: keep-alive
User-Agent: Mozilla/5.0 (Windows NT 10.0; Win64; x64) AppleWebKit/537.36 (KHTML, like Gecko) Chrome/57.0.2987.133 Safari/537.36
Accept: image/webp,image/*,*/*;q=0.8
Referer: http://www.iconarchive.com/tag/bitmap-image
Accept-Encoding: gzip, deflate, sdch
Accept-Language: en-US,en;q=0.8,ro;q=0.6,ru;q=0.4
Cookie: pid=9ab75297a59c6273; __cfduid=d42e9a40c813e86d93e768c21e124b6f21494087406; configuser=eyJ0ZXN0IjoidGVzdHQiLCJxIjoiYml0bWFwIGltYWdlIn0=; myicons=eyIwIjoiR3JvdXA6UmVjeWNsZSBCaW58UHJpdmF0ZSIsIjEiOiJHcm91cDpJY29ucyBmb3IgbXkgUHJvamVjdCBOby4gMXxQdWJsaWMiLCIyIjoiR3JvdXA6SWNvbnMgZm9yIG15IFByb2plY3QgTm8uIDJ8UHVibGljIiwiMyI6Ikdyb3VwOkljb25zIGZvciBteSBQZXJzb25hbCBEZXNrdG9wfFByaXZhdGUiLCI0IjoiR3JvdXA6SWNvbnMgZm9yIG15IFdvcmsgRGVza3RvcHxQcml2YXRlIn0=; _ga=GA1.2.361614409.1494087457; _gid=GA1.2.444390589.1494087457; _gat=1

HTTP/1.1 200 OK
Cache-Control: public, max-age=7200
Expires: Sat, 06 May 2017 18:17:38 GMT
Content-Type: image/gif
Accept-Ranges: bytes
ETag: "2513208952"
Last-Modified: Wed, 14 Dec 2016 23:22:51 GMT
Content-Length: 66
Date: Sat, 06 May 2017 16:17:38 GMT
Server: lighttpd/1.4.35

GIF89a..............<x.<x!...
...,...........L..p...lo.:...*.4I..;GET /static/js/ia/main.min.js HTTP/1.1
Host: www.iconarchive.com
Connection: keep-alive
User-Agent: Mozilla/5.0 (Windows NT 10.0; Win64; x64) AppleWebKit/537.36 (KHTML, like Gecko) Chrome/57.0.2987.133 Safari/537.36
Accept: */*
Referer: http://www.iconarchive.com/tag/bitmap-image
Accept-Encoding: gzip, deflate, sdch
Accept-Language: en-US,en;q=0.8,ro;q=0.6,ru;q=0.4
Cookie: pid=9ab75297a59c6273; __cfduid=d42e9a40c813e86d93e768c21e124b6f21494087406; configuser=eyJ0ZXN0IjoidGVzdHQiLCJxIjoiYml0bWFwIGltYWdlIn0=

HTTP/1.1 200 OK
Cache-Control: public, max-age=7200
Expires: Sat, 06 May 2017 18:17:37 GMT
Vary: Accept-Encoding
Content-Encoding: gzip
Last-Modified: Wed, 14 Dec 2016 23:22:51 GMT
ETag: "1479717461"
Content-Type: application/javascript
Accept-Ranges: bytes
Content-Length: 10275
Date: Sat, 06 May 2017 16:17:37 GMT
Server: lighttpd/1.4.35

....K.QX...}iw.F..........`.....@_...qb..Lf.....D"....Z......nl....d.....@wuuuuuUu..o..hG.$....2v#+p..7...I...\z....(.W...j.......Z3;~s......%+]..?...r........7..Y)...lC.A..x:	.0..6...
v.v.....XCW..R.
.........~7..h...=u-M..m...N......u..u..oz.h....=...........2.$^.(.o....|........=..Rd.Q..=r..t.....'.n....?$....>F.(&...........|.?.....>=}...:.1..[..@W..y...HO.-.,7v.....,7..ga..A.<]-\.T....&6...i^__7..GM.....Aa..
P:Wqb'.df..E...[..&A	.=.Z...AJ..,c..u:k..E....{.`V.......?...8:v.$..M.S.....~..O.9.....t........|.jM.y.z..i-f..Z.!I^f.....^0.A`M...w....=w..X....)j1..?.>P......H...1 D}yl..b7.....p.......u.o..@..o..P.:.d9...4.......+G.2..-.g...?...$..Y...o. ........#..`.<.M.>J...A....
..'0:M.1.L..L.,
U..k..@/a.:..oK..}...x...G....AW.m.k....).S..zW...$3..y..Qf.7.%.....n.-
....KkxNC;`,...C.....I..P.S..p.i.]....>7..D?......|......oO\.}v~v.6....3..'_....%6r...{K=;?.|p.6.MC..._..]<0....9...7..KI.HolQZ..q'h-...,+X.Hi.&.(P.....|......m.D.......v+..q.#1..E7..v...m(7v4..i!
...x.|nO....p..$.......r.Y..ve.....!.$~..Y(.y.D.x.....]..qx...}..x.H..}...e..ql....0M/H.P.=..s-Qf.GW...O&.2H.+'.2..+K..*a@<..x.^.r...k..^..w.>.:z.v/q..=i.#S..s-Vbo.....\E..:.G.]p.%.......#.kxIi.*\F..y....76...@...q..d..:U......:.R.....?z.N..F...c!....9'^.X&
.
.n...*k!.&.>U!...s.....)Y.Yi..K\.[...j%+*..W...U1UYF..........E".PG.lgz.S....$...x..e..2I..D.,.$.7....%k.....E....d...i.es9u.....`./.u2.........s..M.......a..>9.b...S^....).L.1...G.k|........>u...K........YA...I..gL......'.....u@.......V.30f&c.gv.VB_{...xPE.#o....`..8.%o.h.........}...'+.....t..........I{.........|PGO>......%+....&Gq<...Hi....M..0.`9......j1s.K&`.....9B$........%....>......3o2S.{?..5.K.&...X..%f.F..A"..!h........].]..........>6.F.."..Pk...{h..i.....\B'L.VP6..et2........ b.0...L1y.r..&..5..@...%......8...W2s%...a..Pl.A.{...w.R..E.4......* ..S.....}...1xSP....mG.......I.+....J.
...F...p..J.z.k...aIC....Y......xwcC.P-.E.jGk....)nT.U...e.....*.g'.....9........:.h.XI........F.I9.QH...X....)..q.wsc..O%..O-Ujc...../ D.s..V.#..G.0.C.E....(^.0pivB
.X....a?I....,].-..5..(.w......
.p..."P.h.Os=p.P.y..].e....+..!
..C..;Za1.M..1.I?.F.0...;.6.....+.!Z.{.`... c...E..n.M.tT.1......1.I.	..>...e..{.a`!...BQ.Y'.P.G.^..X.......z.L...........I.aF
....g.......pB..t.R.MVR.4.....+(.C^....G.Q....h.qV.. 9.	
...Z.)........!H.).r.O..W
.l....".o#o..:~~...............F.L...ja....w5.....v.!.Qh...X-.(c.Y..6QrS@..|.do-eF.}'...H.e	EeO..{..1(h...(?b.N..S...b..:....u.}.4[@.....Q.n.....Ip.....	i.^u.6.X...l.}.'.U.0M..Yk.S6......z.._l.r..(W..]..b.$.2..0....A.5..<-...j.iE.4...y..^.4.co..&.1...&.R..u.........G..G...j.*Y..|
4.|....l..l....z..?...Nk....!]......Rp.
....$......d<..%Z.t..5.`D@.6.......XQ...`..n..A..X....._k.=.0..3.4.....5.f.^.`..U3.ix.N[..O..Qx..Edb.
f-.a$.p.&&)..K.;......)6X....r.@x.......-.........4.....vt.?..	.e.l=.I..O.A/...[.!..&..gc..O.]7..>..../.C[.....o.@.{......B..oyP..vKCq.R3Z<.....u.^q.....c.m.....(.,.Z...,...a.....
N..S0..S......6P....tx.E;)n....V...W5....m....pi]5.. Co.`. ..5....#....(..	.X...`...	.r.=8\.......*...v.>..R..$T..<....nd.....Ey.L]I%J......g=....J..LI.;.(\...2..P..........L...I.a.G..+..?L.p.p..f.2..+.MIz./...w@-._.D...q77.S...v.H..N&...L.".uI....0......i...E...6....tZ.~z.~p`}N7%].......... ..~.9_......k.G....*..\....6.;YMYw...XrF{...g.;.A.....M(...!...l3.-bl=......O....c..3..C..c..h.SE&.&q.2.c..nL\n..!......E..E...qOo.CI.[W.E.`...A...13.u-.y.fjM.x...A/
.....|...M.....WM[.2...(+]
....@.$
}?O
.EN}J.u..|..t.....X.*..G..t.Z...]...0.d...I(e.\..Sk.,.gK.R....=.qA0...F......<....Z.s...`0.;H....?..^
.q.N>\R.K..K........C.......;.[.......D...^...8p1=."!..xR:.F.b.7.X.(.B5Zv.D...<`...L.R.aD....'a.r}.......!..r..-;o.
..k&.4..B...3:..#..j.R.mlGM{I.....W
...!.S.)NRb..i\...UZ2..........^)..^.,.s.Z....i......d(. }plu...Z..,.7..um.;4........g....[....`..xf...
..U\....%.GKX..	~D.2	` /.f.....L.c2.0O..L..=...S#......P...........J.Z.....W...n@..`.....-.r.....IX........".T.vXm...b6..U.."...*.{.."...^.@.P.j.T.)...X....x....l>@Y.O..r.JLK.I5..O.$...E.{Kk...3..."Q	.......C..ft.%..;!.1.EP..>x.wk.$G.b.G.`(....w+b.w.DW_..w...b..F.En.	...IK]'...,.hUe..24..C:jg.)0#...3/.hJ~.....5S...O.....`..1H..t.
.'3?.....$....Y..A9.sM|iG..s..G.......?h..9..."....j......W........=V..6[.......^.+.G..JQ,./.....1..2.3..\....YZ..xfu.h
.g......;[..0n~..s....@WR.|/..C.P..O.fVy.ie|..."...0.V...p..8...I.a..&..DT..nCW...`..P...".....4s...x..
u.J..#..{WW...Q06.E>........N6.1)r..e,J_G.bA.r.c.....y...MJW.*....N..V..33.-.l....=....E+...E...^p.6Ok...v..In....kn.^..2=].
..yL....|..H>...\R.|.=.8S..Q..8...8PM........|..*.Z.N'.%...W.w.....nzU	..dd....{|T....P......TR...u....?.4...y.....
.*..1(.......>..b|.z...[MO()I....;...6...Y.fngJ4....O..jv..... }.l/.Wh.....V.*5x..*%......VK.]r.bU....m./.~g.3......A......1.';:.G. ..a.lQ..!..-t...5R.."..`V.....S...8'.6.H../.^....{.u.f.#...}=y...y.K....2.....J...B..I.y)..........*/!7.].cO.A.....1Z.~._kD.8".]GD...^....u..U. ..vD/..A......e0*A.Y.......k7z.|......<..."
!.......
r.w.]..-4.O....F.Y5h1i.D.j.F..uT6.k.g...j..b..A.8`..*...Wn.^...,Y....a.w..}f....H.i*......
..T....?`./...r.2Z6i...G..~..[........K].
h......H..5db.w.YD.X.O.B.hB.M............../...-YJ...v....`=qk..W
..bp...K@r).\".4.=.....n....sp`.&.|....T.}u.T
w.J...(?y.T5.....
.3,.5...........^B.....^.o..e2I;W..5<.r.._%_.l..P.ju.....1L0...q..k.5......p.AQSC............(.J...|..!.[..o
S.....0X....2..9.$7.g..$Ja\
w7.c...x....9.E.o..l.[`....r....@..m..~>.x.r...D.$^.......p......>4OU.H...2...4..
..{Ne..#...........
_..O...x...t...:+..hEU.+...,..U:....V?..w.4....."6;._..Q........Y. 0^..\...0p...l..... K..
.....7.h...bp.h...T.ww.j.0
p....e.YQ....r.[t...<5WK.Y...,....[~...,...q....a._.?..|	..............J...5..c.l...........fi
.{...0..L~iR....E	....=v!.-..!WU.<.&.....t....=i.....6U.J.p!.....8.=:Y..... .d...|...N...._........F.d.s....|.Q....:zj.....cwF.qL.s.Hq>.[m.).
..v...J..)..	^......S...y.dV
..aa........
>.t...L.$..J..\...a,.2GW9S..._.._...sV$#.@..B....OZ..p0...../ ....~..^z)....,^..id..(f?..........8G.._}.~...b...._."...&.m.F.[_oU	Q..j...i.>.....).\./g.8...dY..c.t:eb...o'.....y.%f\..#Pr..f..l... .._.a.....N..^....9...UW.ZH5.."r?>.}<<.Uo....j`.....d.......D.S..T...!3......9.
.......;<zrt.........8.-0.c.W..............L...#8...._...
c;.
S.....5&hz2..C.5k...	.|..X...u R.....n....O0.?...Ea.......X.7O.a.u.kts...V...n\G......:UC9r.n...PNa7....D...|@Fw+..wE..BpQ.............3%..rZ.
3..J .G..V-.h.&.(...8...A....n..).... .Q.Va. )....~*.6..wG`Jz*....6.)..T<.......f;{K{.....T6..Z.....*...c#.....a$..v)ZW.."...B.....:9V.Y...Q..[..Dg..=x.XI%@Qs.Y7`.........&..4<8:J..
..B...
.....<.K.a.'../w.#I......~{.:v....E.{...Q....t...c6..L1..%_UTZ.,.......Y.]PH.h.M#	O.H......u..L.W.^\../.-...R........M..lX=...%..+/..5w.Y ..
.....xV....3..l.hW'....j.......y....<B..'....-......Z......?*s......Z....i...A=`D.....t..Gw.Cef.....U*..v...]..M........M...`G	(.X....+...5...K.:}m..5q-+...^'
.". ........9..)q....Z.XE....l.....C...HE@\Y.u..o..G.&.xQ>(!wP.\	.B.
Z[..xBr....	.d....t.<\:..:.R..X@]..0..u...S.N/...m.wm.l+W%,i........k&ox..N....#.q.}.c.^y..l.H$...<.....%A.4.....\..
m./"z)X.+c#..FI.....&....+...&..i..T.5.nPd.t..N..e.H.\....$Q..+...
^J....y...N.c".S.b....iW...u.9_......
.........wkX......=b.......}k...Vq..9.VDs]..q....(.y...Hwb.$.....W.`f....q.9.	ER...4.?...2..L.m..J..[..A...J.....4.j.8.+.E...U.K.{j{Ak.7-s...f.K.}..V....iz..3f3..P...$O..d..e...I..).."_.u..o...^..@+U.].c...'.....\....&fR.K....(...T....T.h.@m.].*Oc6.HJh.Z...6Q.....~TU.P i...:j.Fk,....ao.W{.eY.....;v.~.T....t.E?V.~.;....N.^.@.Eg.9. ...o>:N.S..;.5..W.#.*._..l.wDV..N..l...:.J.I..*ID...J...8k./._k..JKQe.
.,t}..S.P.....ED.k.s...<..g!.B..$..=O>.y.1..g.a.........s..........Ix..$..zc{
..-..~..&....[...mS............r...upl...................MXY..-h~m=x|Nd...B...I.o.K,.{j.#d...
q.".=s..z......b.-m..L.\W.....xq3..r.B...........>l.K........\.eE.............).)&....3).]_.?6u...~...Q8....D...]g....b...)..{7.W.....Y.g;...D.....0.3..E.P-.%.p.|...F......X<.Y...G.+...z-.
[......i..4%.*.....E7G.6O.. ..cH...7....1.yO/"./P.-....-Kp..1.*.Z.2.......tB<...vBpxQ&...O..$....n....b1.?.
H...........!...q{.^...hP..............B.
K.*...C-.6.A....S^.OoI...._/..P..'..e0....m.. .E..ge8..0. ..X...{.s7..yU.$..^.%e5ol...Vq.C..h..U'..N.w2....^.!:...g...z...>.......lq.!r.kN........\.L...2.|	)p\..<...x2...a.0}..n..
.X.UU5.].P..N..j.....J...l.5.i.=|2.$.
]Y......z......n..]......HN88H...4....b,H.......SK.V.J....	/.....=&....M..u..M`...!.>.......]W.._...._y...GY......c.....w..{E2Q?'..	.x0E....q..}h.~.}..^i...7.PM=.T..Q...WF...~.^.l.I.
=..$.eyE..DTc..f!..j>.FV.......0.\X..z.Q...Ud...+.L'...'.'].gw.4...u.\...Q..G.Vx...*.e.7s..T..1.1mv5U-.x.9g....e.........,Ysp.f`.._vE.\..+....~i-v@........O.y<....g.....QVh|g.?.PP@.C&.jG...?....w.d5.]...|z.Q.W..@..(.
$.W..(D..........1L...{;..U....t...a....?.G+.=.)..FZ/...I.b......M...E.....li...+X.B.O.u]n.....!.J.3O......d....9.B.......O..1........%.0n.s.K;Mw.......u	.Ha.%n..*...-4DPu...E.I....|....pY..\.X`k4...6
.T ...]...0.I*Ija....%A...~.........(....7_...H..MF..V....
..2...p..+t.#......_...QT.#.n..[...2.]*s;.I.[w..r..<..}jG.).T...?.X*...4....S..A..s...GQ...
......l....t.:...By.^%...p.9...c
........I.D...>5.|j..R.yG...<..B8..=B..5
.()..../......r-....$.+...z...dWb...../.*nS...).-f...w.74H9;..........Z..<p=..r.y#..m_N.....B._....%......I...>....'.e..x.K/.}.o%......FQ.qNhYYZ.....L..].A....].....f....R.<}....?................?...............>.. \.#.......?;.^........m....f.3..9....9..Cs.%.	.
........}2_\....x.......I._..o.\=.S..mLNx.v-|. .~..	..`.2.{5...t$.
.''..Oa......?.u-L.....:7....'.z"./....!...h..=i4.,......F#..+..... E...N.v..AF.:Z..^@'..w.r...O...%..V....w.&.J@9........R.l@.L.|. ..&_P.>..@.....
\...TJ................P
.~...v{.f....O..a.
#.....8'<..}){..M.r..C..(..Am.'A..1..]...g.@..../.......p._.<c...3%..@..;Im$<..0.)`....5).kg.
y..."3..".`G	(*g...q.:...p..S.WFa..
."8.0. ..v%|N...BQ.v.&E...}.....AWJ...........u.).R.k.......`........j.=..W.g|...k...R.;TI>?T	Stl4...8#b.q+:.!......!$).*..{.FW.+.@Z..|.Z.\.3!.P.2.w.....t<....>..e.|.`....[...5.e.Ed.......bDr....
b.n..z.u.	..UP.....*..>.aGc.VO..&.......Uw....P..\..O	...	^.2......b...s...C...wC;f.{..H.=>6......0.k....H.K...[.5o.}...2I.@...|..,..=[.,......b...^.g.Y.`.........v../.#.........!......Z..
..K.j...+....o.V.u<\.!.....Qg.:..}.<..;.vd.....l..>..C.k..+.$a
.
g.x...D74......<.RE0.;..P...._..<...(..x....1.T#..e.j.N...#.1t...7..........n..7G.	..1....0.....z......+.....#..f.w.`Kqwo.	.......(.....8...:./'V..7q..C.q.f...~.r...l.1..n.T+...id{....2m.....K..'C...GET /static/js/jscolor/cross.gif HTTP/1.1
Host: www.iconarchive.com
Connection: keep-alive
User-Agent: Mozilla/5.0 (Windows NT 10.0; Win64; x64) AppleWebKit/537.36 (KHTML, like Gecko) Chrome/57.0.2987.133 Safari/537.36
Accept: image/webp,image/*,*/*;q=0.8
Referer: http://www.iconarchive.com/tag/bitmap-image
Accept-Encoding: gzip, deflate, sdch
Accept-Language: en-US,en;q=0.8,ro;q=0.6,ru;q=0.4
Cookie: pid=9ab75297a59c6273; __cfduid=d42e9a40c813e86d93e768c21e124b6f21494087406; configuser=eyJ0ZXN0IjoidGVzdHQiLCJxIjoiYml0bWFwIGltYWdlIn0=; myicons=eyIwIjoiR3JvdXA6UmVjeWNsZSBCaW58UHJpdmF0ZSIsIjEiOiJHcm91cDpJY29ucyBmb3IgbXkgUHJvamVjdCBOby4gMXxQdWJsaWMiLCIyIjoiR3JvdXA6SWNvbnMgZm9yIG15IFByb2plY3QgTm8uIDJ8UHVibGljIiwiMyI6Ikdyb3VwOkljb25zIGZvciBteSBQZXJzb25hbCBEZXNrdG9wfFByaXZhdGUiLCI0IjoiR3JvdXA6SWNvbnMgZm9yIG15IFdvcmsgRGVza3RvcHxQcml2YXRlIn0=; _ga=GA1.2.361614409.1494087457; _gid=GA1.2.444390589.1494087457; _gat=1

HTTP/1.1 200 OK
Cache-Control: public, max-age=7200
Expires: Sat, 06 May 2017 18:17:38 GMT
Content-Type: image/gif
Accept-Ranges: bytes
ETag: "2001503800"
Last-Modified: Wed, 14 Dec 2016 23:22:51 GMT
Content-Length: 83
Date: Sat, 06 May 2017 16:17:38 GMT
Server: lighttpd/1.4.35

GIF89a...................!...
...,..........$........RQg/.,....@..).).q...p<..U...;GET /static/js/jscolor/arrow.gif HTTP/1.1
Host: www.iconarchive.com
Connection: keep-alive
User-Agent: Mozilla/5.0 (Windows NT 10.0; Win64; x64) AppleWebKit/537.36 (KHTML, like Gecko) Chrome/57.0.2987.133 Safari/537.36
Accept: image/webp,image/*,*/*;q=0.8
Referer: http://www.iconarchive.com/tag/bitmap-image
Accept-Encoding: gzip, deflate, sdch
Accept-Language: en-US,en;q=0.8,ro;q=0.6,ru;q=0.4
Cookie: pid=9ab75297a59c6273; __cfduid=d42e9a40c813e86d93e768c21e124b6f21494087406; configuser=eyJ0ZXN0IjoidGVzdHQiLCJxIjoiYml0bWFwIGltYWdlIn0=; myicons=eyIwIjoiR3JvdXA6UmVjeWNsZSBCaW58UHJpdmF0ZSIsIjEiOiJHcm91cDpJY29ucyBmb3IgbXkgUHJvamVjdCBOby4gMXxQdWJsaWMiLCIyIjoiR3JvdXA6SWNvbnMgZm9yIG15IFByb2plY3QgTm8uIDJ8UHVibGljIiwiMyI6Ikdyb3VwOkljb25zIGZvciBteSBQZXJzb25hbCBEZXNrdG9wfFByaXZhdGUiLCI0IjoiR3JvdXA6SWNvbnMgZm9yIG15IFdvcmsgRGVza3RvcHxQcml2YXRlIn0=; _ga=GA1.2.361614409.1494087457; _gid=GA1.2.444390589.1494087457; _gat=1

HTTP/1.1 200 OK
Cache-Control: public, max-age=7200
Expires: Sat, 06 May 2017 18:17:38 GMT
Content-Type: image/gif
Accept-Ranges: bytes
ETag: "2513208952"
Last-Modified: Wed, 14 Dec 2016 23:22:51 GMT
Content-Length: 66
Date: Sat, 06 May 2017 16:17:38 GMT
Server: lighttpd/1.4.35

GIF89a..............<x.<x!...
...,...........L..p...lo.:...*.4I..;